{
  "page": 2,
  "totalPages": 2,
  "itemsPerPage": 12,
  "totalItems": 14,
  "items": [
    {
      "id": 12,
      "image": "/images/image-product.jpg",
      "name": "Produto 13",
      "price": 300,
      "discount": 50,
      "priceMember": 100,
      "priceNonMember": 150,
      "type": "Tinto",
      "classification": "Seco",
      "size": "750 ml",
      "rating": 4,
      "avaliations": 292,
      "country": "Portugal",
      "region": "Dão",
      "flag": "/images/flag-test.svg",
      "sommelierComment": "Esse tinto traz em seu assemblage a Touriga Nacional, uma das uvas tintas portuguesas mais conhecidas no mundo do vinho. Nativa do Dão, região produtora desse vinho, essa variedade atinge a sua expressão máxima nesse terroir. O termo Colheita Selecionada estampado no rótulo, é uma referência a qualidade da safra 2015."
    },
    {
      "id": 13,
      "image": "/images/image-product.jpg",
      "name": "Produto 14",
      "price": 200,
      "discount": 50,
      "priceMember": 50,
      "priceNonMember": 100,
      "type": "Tinto",
      "classification": "Seco",
      "volume": "750 ml",
      "rating": 0,
      "avaliations": 0,
      "country": "Espanha",
      "region": "Rioja",
      "flag": "/images/flag-test.svg",
      "sommelierComment": "Colección de Familia La Mateo 2015 foi elaborado a partir de uma rigorosa seleção das variedades tempranillo, garnacha e graciano, todas escolhidas a dedo em El Salobral, o vinhedo mais emblemático da vinícola, com orientação norte-sul e solos argilosos e calcários. O vinho é produzido a partir da fermentação malolática em barris novos de 225 litros, pós é submetido a um processo de envelhecimento de 14 meses em barricas de carvalho francês Allier, Nevers, Tronçaise & Jupilles (85%) e americano da Pensilvânia (15%). Para preservar aromas e sabores, foi engarrafado sem filtrar, envelhecendo por mais 18 meses engarrafado, antes de ir à venda."
    }
  ]
}