{
  "page": 1,
  "totalPages": 2,
  "itemsPerPage": 12,
  "totalItems": 14,
  "items": [
    {
      "id": 0,
      "image": "",
      "name": "Produto 1",
      "price": 175.9,
      "discount": 45,
      "priceMember": 96.9,
      "priceNonMember": 114,
      "type": "Tinto",
      "classification": "Seco",
      "size": "750 ml",
      "rating": 4,
      "avaliations": 292,
      "country": "Portugal",
      "region": "Dão",
      "flag": "",
      "sommelierComment": "Esse tinto traz em seu assemblage a Touriga Nacional, uma das uvas tintas portuguesas mais conhecidas no mundo do vinho. Nativa do Dão, região produtora desse vinho, essa variedade atinge a sua expressão máxima nesse terroir. O termo Colheita Selecionada estampado no rótulo, é uma referência a qualidade da safra 2015."
    },
    {
      "id": 1,
      "image": "",
      "name": "Colección De Familia La Mateo D.O.Ca. Rioja 2017",
      "price": 390.9,
      "discount": 45,
      "priceMember": 302.36,
      "priceNonMember": 355.76,
      "type": "Tinto",
      "classification": "Seco",
      "volume": "750 ml",
      "rating": 0,
      "avaliations": 0,
      "country": "Espanha",
      "region": "Rioja",
      "flag": "",
      "sommelierComment": "Colección de Familia La Mateo 2015 foi elaborado a partir de uma rigorosa seleção das variedades tempranillo, garnacha e graciano, todas escolhidas a dedo em El Salobral, o vinhedo mais emblemático da vinícola, com orientação norte-sul e solos argilosos e calcários. O vinho é produzido a partir da fermentação malolática em barris novos de 225 litros, pós é submetido a um processo de envelhecimento de 14 meses em barricas de carvalho francês Allier, Nevers, Tronçaise & Jupilles (85%) e americano da Pensilvânia (15%). Para preservar aromas e sabores, foi engarrafado sem filtrar, envelhecendo por mais 18 meses engarrafado, antes de ir à venda."
    },
    {
      "id": 2,
      "image": "",
      "name": "Viña Bouchon País Salvaje 2019",
      "price": 241.9,
      "discount": 31,
      "priceMember": 166.55,
      "priceNonMember": 195.94,
      "type": "Tinto",
      "classification": "Seco",
      "volume": "750 ml",
      "Rating": 4,
      "rating": 4,
      "country": "Chile",
      "region": "Valle del Maule",
      "flag": "",
      "sommelierComment": "Pontuado com 92 Tim Atkin, este tinto traz a uva País, proveniente de vinhas selvagens que crescem naturalmente no Valle del Maule. A colheita dessas uvas é feita manualmente, com o auxílio de escadas de até 5 metros de altura. Para expressar fielmente suas características, esse vinho não é filtrado, preservando os aromas e sabores desta raridade"
    },
    {
      "id": 3,
      "image": "",
      "name": "Canepa Novísimo Cabernet Sauvignon 2017",
      "price": 241.9,
      "discount": 31,
      "priceMember": 166.55,
      "priceNonMember": 195.94,
      "type": "Tinto",
      "classification": "Seco",
      "volume": "750 ml",
      "Rating": 4,
      "rating": 4,
      "country": "Chile",
      "region": "Valle Central",
      "flag": "",
      "sommelierComment": "Jovem e com um estilo que agrada com facilidade, esse versátil rótulo pode ser degustado sozinho ou harmonizado com receitas do dia a dia. A Viña Canepa, fundada no Chile por imigrantes italianos, iniciou a produção da linha Novísimo nos anos 80."
    },
    {
      "id": 4,
      "image": "",
      "name": "Bacalhôa Quinta da Garrida Colheita Selecionada 2015",
      "price": 175.9,
      "discount": 45,
      "priceMember": 96.9,
      "priceNonMember": 114,
      "type": "Tinto",
      "classification": "Seco",
      "size": "750 ml",
      "rating": 4,
      "avaliations": 292,
      "country": "Portugal",
      "region": "Dão",
      "flag": "",
      "sommelierComment": "Esse tinto traz em seu assemblage a Touriga Nacional, uma das uvas tintas portuguesas mais conhecidas no mundo do vinho. Nativa do Dão, região produtora desse vinho, essa variedade atinge a sua expressão máxima nesse terroir. O termo Colheita Selecionada estampado no rótulo, é uma referência a qualidade da safra 2015."
    },
    {
      "id": 5,
      "image": "",
      "name": "Colección De Familia La Mateo D.O.Ca. Rioja 2017",
      "price": 390.9,
      "discount": 45,
      "priceMember": 302.36,
      "priceNonMember": 355.76,
      "type": "Tinto",
      "classification": "Seco",
      "volume": "750 ml",
      "rating": 0,
      "avaliations": 0,
      "country": "Espanha",
      "region": "Rioja",
      "flag": "",
      "sommelierComment": "Colección de Familia La Mateo 2015 foi elaborado a partir de uma rigorosa seleção das variedades tempranillo, garnacha e graciano, todas escolhidas a dedo em El Salobral, o vinhedo mais emblemático da vinícola, com orientação norte-sul e solos argilosos e calcários. O vinho é produzido a partir da fermentação malolática em barris novos de 225 litros, pós é submetido a um processo de envelhecimento de 14 meses em barricas de carvalho francês Allier, Nevers, Tronçaise & Jupilles (85%) e americano da Pensilvânia (15%). Para preservar aromas e sabores, foi engarrafado sem filtrar, envelhecendo por mais 18 meses engarrafado, antes de ir à venda."
    },
    {
      "id": 6,
      "image": "",
      "name": "Viña Bouchon País Salvaje 2019",
      "price": 241.9,
      "discount": 31,
      "priceMember": 166.55,
      "priceNonMember": 195.94,
      "type": "Tinto",
      "classification": "Seco",
      "volume": "750 ml",
      "Rating": 4,
      "rating": 4,
      "country": "Chile",
      "region": "Valle del Maule",
      "flag": "",
      "sommelierComment": "Pontuado com 92 Tim Atkin, este tinto traz a uva País, proveniente de vinhas selvagens que crescem naturalmente no Valle del Maule. A colheita dessas uvas é feita manualmente, com o auxílio de escadas de até 5 metros de altura. Para expressar fielmente suas características, esse vinho não é filtrado, preservando os aromas e sabores desta raridade"
    },
    {
      "id": 7,
      "image": "",
      "name": "Canepa Novísimo Cabernet Sauvignon 2017",
      "price": 241.9,
      "discount": 31,
      "priceMember": 166.55,
      "priceNonMember": 195.94,
      "type": "Tinto",
      "classification": "Seco",
      "volume": "750 ml",
      "Rating": 4,
      "rating": 4,
      "country": "Chile",
      "region": "Valle Central",
      "flag": "",
      "sommelierComment": "Jovem e com um estilo que agrada com facilidade, esse versátil rótulo pode ser degustado sozinho ou harmonizado com receitas do dia a dia. A Viña Canepa, fundada no Chile por imigrantes italianos, iniciou a produção da linha Novísimo nos anos 80."
    },
    {
      "id": 8,
      "image": "",
      "name": "Bacalhôa Quinta da Garrida Colheita Selecionada 2015",
      "price": 175.9,
      "discount": 45,
      "priceMember": 96.9,
      "priceNonMember": 114,
      "type": "Tinto",
      "classification": "Seco",
      "size": "750 ml",
      "rating": 4,
      "avaliations": 292,
      "country": "Portugal",
      "region": "Dão",
      "flag": "",
      "sommelierComment": "Esse tinto traz em seu assemblage a Touriga Nacional, uma das uvas tintas portuguesas mais conhecidas no mundo do vinho. Nativa do Dão, região produtora desse vinho, essa variedade atinge a sua expressão máxima nesse terroir. O termo Colheita Selecionada estampado no rótulo, é uma referência a qualidade da safra 2015."
    },
    {
      "id": 9,
      "image": "",
      "name": "Colección De Familia La Mateo D.O.Ca. Rioja 2017",
      "price": 390.9,
      "discount": 45,
      "priceMember": 302.36,
      "priceNonMember": 355.76,
      "type": "Tinto",
      "classification": "Seco",
      "volume": "750 ml",
      "rating": 0,
      "avaliations": 0,
      "country": "Espanha",
      "region": "Rioja",
      "flag": "",
      "sommelierComment": "Colección de Familia La Mateo 2015 foi elaborado a partir de uma rigorosa seleção das variedades tempranillo, garnacha e graciano, todas escolhidas a dedo em El Salobral, o vinhedo mais emblemático da vinícola, com orientação norte-sul e solos argilosos e calcários. O vinho é produzido a partir da fermentação malolática em barris novos de 225 litros, pós é submetido a um processo de envelhecimento de 14 meses em barricas de carvalho francês Allier, Nevers, Tronçaise & Jupilles (85%) e americano da Pensilvânia (15%). Para preservar aromas e sabores, foi engarrafado sem filtrar, envelhecendo por mais 18 meses engarrafado, antes de ir à venda."
    },
    {
      "id": 10,
      "image": "",
      "name": "Viña Bouchon País Salvaje 2019",
      "price": 241.9,
      "discount": 31,
      "priceMember": 166.55,
      "priceNonMember": 195.94,
      "type": "Tinto",
      "classification": "Seco",
      "volume": "750 ml",
      "Rating": 4,
      "rating": 4,
      "country": "Chile",
      "region": "Valle del Maule",
      "flag": "",
      "sommelierComment": "Pontuado com 92 Tim Atkin, este tinto traz a uva País, proveniente de vinhas selvagens que crescem naturalmente no Valle del Maule. A colheita dessas uvas é feita manualmente, com o auxílio de escadas de até 5 metros de altura. Para expressar fielmente suas características, esse vinho não é filtrado, preservando os aromas e sabores desta raridade"
    },
    {
      "id": 11,
      "image": "",
      "name": "Canepa Novísimo Cabernet Sauvignon 2017",
      "price": 241.9,
      "discount": 31,
      "priceMember": 166.55,
      "priceNonMember": 195.94,
      "type": "Tinto",
      "classification": "Seco",
      "volume": "750 ml",
      "Rating": 4,
      "rating": 4,
      "country": "Chile",
      "region": "Valle Central",
      "flag": "",
      "sommelierComment": "Jovem e com um estilo que agrada com facilidade, esse versátil rótulo pode ser degustado sozinho ou harmonizado com receitas do dia a dia. A Viña Canepa, fundada no Chile por imigrantes italianos, iniciou a produção da linha Novísimo nos anos 80."
    }
  ]
}