{
  "page": 1,
  "totalPages": 2,
  "itemsPerPage": 12,
  "totalItems": 14,
  "items": [
    {
      "id": 0,
      "image": "/images/image-product.jpg",
      "name": "Produto 1",
      "price": 300,
      "discount": 50,
      "priceMember": 100,
      "priceNonMember": 150,
      "type": "Tinto",
      "classification": "Seco",
      "size": "750 ml",
      "rating": 4,
      "avaliations": 292,
      "country": "Portugal",
      "region": "Dão",
      "flag": "/images/flag-test.svg",
      "sommelierComment": "Esse tinto traz em seu assemblage a Touriga Nacional, uma das uvas tintas portuguesas mais conhecidas no mundo do vinho. Nativa do Dão, região produtora desse vinho, essa variedade atinge a sua expressão máxima nesse terroir. O termo Colheita Selecionada estampado no rótulo, é uma referência a qualidade da safra 2015."
    },
    {
      "id": 1,
      "image": "/images/image-product.jpg",
      "name": "Produto 2",
      "price": 200,
      "discount": 50,
      "priceMember": 50,
      "priceNonMember": 100,
      "type": "Tinto",
      "classification": "Seco",
      "volume": "750 ml",
      "rating": 0,
      "avaliations": 0,
      "country": "Espanha",
      "region": "Rioja",
      "flag": "/images/flag-test.svg",
      "sommelierComment": "Colección de Familia La Mateo 2015 foi elaborado a partir de uma rigorosa seleção das variedades tempranillo, garnacha e graciano, todas escolhidas a dedo em El Salobral, o vinhedo mais emblemático da vinícola, com orientação norte-sul e solos argilosos e calcários. O vinho é produzido a partir da fermentação malolática em barris novos de 225 litros, pós é submetido a um processo de envelhecimento de 14 meses em barricas de carvalho francês Allier, Nevers, Tronçaise & Jupilles (85%) e americano da Pensilvânia (15%). Para preservar aromas e sabores, foi engarrafado sem filtrar, envelhecendo por mais 18 meses engarrafado, antes de ir à venda."
    },
    {
      "id": 2,
      "image": "/images/image-product.jpg",
      "name": "Produto 3",
      "price": 400,
      "discount": 50,
      "priceMember": 150,
      "priceNonMember": 200,
      "type": "Tinto",
      "classification": "Seco",
      "volume": "750 ml",
      "Rating": 4,
      "rating": 4,
      "country": "Chile",
      "region": "Valle del Maule",
      "flag": "/images/flag-test.svg",
      "sommelierComment": "Pontuado com 92 Tim Atkin, este tinto traz a uva País, proveniente de vinhas selvagens que crescem naturalmente no Valle del Maule. A colheita dessas uvas é feita manualmente, com o auxílio de escadas de até 5 metros de altura. Para expressar fielmente suas características, esse vinho não é filtrado, preservando os aromas e sabores desta raridade"
    },
    {
      "id": 3,
      "image": "/images/image-product.jpg",
      "name": "Produto 4",
      "price": 500,
      "discount": 50,
      "priceMember": 200,
      "priceNonMember": 250,
      "type": "Tinto",
      "classification": "Seco",
      "volume": "750 ml",
      "Rating": 4,
      "rating": 4,
      "country": "Chile",
      "region": "Valle Central",
      "flag": "/images/flag-test.svg",
      "sommelierComment": "Jovem e com um estilo que agrada com facilidade, esse versátil rótulo pode ser degustado sozinho ou harmonizado com receitas do dia a dia. A Viña Canepa, fundada no Chile por imigrantes italianos, iniciou a produção da linha Novísimo nos anos 80."
    },
    {
      "id": 4,
      "image": "/images/image-product.jpg",
      "name": "Produto 5",
      "price": 100,
      "discount": 50,
      "priceMember": 30,
      "priceNonMember": 50,
      "type": "Tinto",
      "classification": "Seco",
      "size": "750 ml",
      "rating": 4,
      "avaliations": 292,
      "country": "Portugal",
      "region": "Dão",
      "flag": "/images/flag-test.svg",
      "sommelierComment": "Esse tinto traz em seu assemblage a Touriga Nacional, uma das uvas tintas portuguesas mais conhecidas no mundo do vinho. Nativa do Dão, região produtora desse vinho, essa variedade atinge a sua expressão máxima nesse terroir. O termo Colheita Selecionada estampado no rótulo, é uma referência a qualidade da safra 2015."
    },
    {
      "id": 5,
      "image": "/images/image-product.jpg",
      "name": "Produto 6",
      "price": 100,
      "discount": 50,
      "priceMember": 30,
      "priceNonMember": 50,
      "type": "Tinto",
      "classification": "Seco",
      "volume": "750 ml",
      "rating": 0,
      "avaliations": 0,
      "country": "Espanha",
      "region": "Rioja",
      "flag": "/images/flag-test.svg",
      "sommelierComment": "Colección de Familia La Mateo 2015 foi elaborado a partir de uma rigorosa seleção das variedades tempranillo, garnacha e graciano, todas escolhidas a dedo em El Salobral, o vinhedo mais emblemático da vinícola, com orientação norte-sul e solos argilosos e calcários. O vinho é produzido a partir da fermentação malolática em barris novos de 225 litros, pós é submetido a um processo de envelhecimento de 14 meses em barricas de carvalho francês Allier, Nevers, Tronçaise & Jupilles (85%) e americano da Pensilvânia (15%). Para preservar aromas e sabores, foi engarrafado sem filtrar, envelhecendo por mais 18 meses engarrafado, antes de ir à venda."
    },
    {
      "id": 6,
      "image": "/images/image-product.jpg",
      "name": "Produto 7",
      "price": 400,
      "discount": 50,
      "priceMember": 150,
      "priceNonMember": 200,
      "type": "Tinto",
      "classification": "Seco",
      "volume": "750 ml",
      "Rating": 4,
      "rating": 4,
      "country": "Chile",
      "region": "Valle del Maule",
      "flag": "/images/flag-test.svg",
      "sommelierComment": "Pontuado com 92 Tim Atkin, este tinto traz a uva País, proveniente de vinhas selvagens que crescem naturalmente no Valle del Maule. A colheita dessas uvas é feita manualmente, com o auxílio de escadas de até 5 metros de altura. Para expressar fielmente suas características, esse vinho não é filtrado, preservando os aromas e sabores desta raridade"
    },
    {
      "id": 7,
      "image": "/images/image-product.jpg",
      "name": "Produto 8",
      "price": 500,
      "discount": 50,
      "priceMember": 200,
      "priceNonMember": 250,
      "type": "Tinto",
      "classification": "Seco",
      "volume": "750 ml",
      "Rating": 4,
      "rating": 4,
      "country": "Chile",
      "region": "Valle Central",
      "flag": "/images/flag-test.svg",
      "sommelierComment": "Jovem e com um estilo que agrada com facilidade, esse versátil rótulo pode ser degustado sozinho ou harmonizado com receitas do dia a dia. A Viña Canepa, fundada no Chile por imigrantes italianos, iniciou a produção da linha Novísimo nos anos 80."
    },
    {
      "id": 8,
      "image": "/images/image-product.jpg",
      "name": "Produto 9",
      "price": 1400,
      "discount": 50,
      "priceMember": 600,
      "priceNonMember": 700,
      "type": "Tinto",
      "classification": "Seco",
      "size": "750 ml",
      "rating": 4,
      "avaliations": 292,
      "country": "Portugal",
      "region": "Dão",
      "flag": "/images/flag-test.svg",
      "sommelierComment": "Esse tinto traz em seu assemblage a Touriga Nacional, uma das uvas tintas portuguesas mais conhecidas no mundo do vinho. Nativa do Dão, região produtora desse vinho, essa variedade atinge a sua expressão máxima nesse terroir. O termo Colheita Selecionada estampado no rótulo, é uma referência a qualidade da safra 2015."
    },
    {
      "id": 9,
      "image": "/images/image-product.jpg",
      "name": "Produto 10",
      "price": 100,
      "discount": 50,
      "priceMember": 30,
      "priceNonMember": 50,
      "type": "Tinto",
      "classification": "Seco",
      "volume": "750 ml",
      "rating": 0,
      "avaliations": 0,
      "country": "Espanha",
      "region": "Rioja",
      "flag": "/images/flag-test.svg",
      "sommelierComment": "Colección de Familia La Mateo 2015 foi elaborado a partir de uma rigorosa seleção das variedades tempranillo, garnacha e graciano, todas escolhidas a dedo em El Salobral, o vinhedo mais emblemático da vinícola, com orientação norte-sul e solos argilosos e calcários. O vinho é produzido a partir da fermentação malolática em barris novos de 225 litros, pós é submetido a um processo de envelhecimento de 14 meses em barricas de carvalho francês Allier, Nevers, Tronçaise & Jupilles (85%) e americano da Pensilvânia (15%). Para preservar aromas e sabores, foi engarrafado sem filtrar, envelhecendo por mais 18 meses engarrafado, antes de ir à venda."
    },
    {
      "id": 10,
      "image": "/images/image-product.jpg",
      "name": "Produto 8",
      "price": 500,
      "discount": 50,
      "priceMember": 200,
      "priceNonMember": 250,
      "type": "Tinto",
      "classification": "Seco",
      "volume": "750 ml",
      "Rating": 4,
      "rating": 4,
      "country": "Chile",
      "region": "Valle del Maule",
      "flag": "/images/flag-test.svg",
      "sommelierComment": "Pontuado com 92 Tim Atkin, este tinto traz a uva País, proveniente de vinhas selvagens que crescem naturalmente no Valle del Maule. A colheita dessas uvas é feita manualmente, com o auxílio de escadas de até 5 metros de altura. Para expressar fielmente suas características, esse vinho não é filtrado, preservando os aromas e sabores desta raridade"
    },
    {
      "id": 11,
      "image": "/images/image-product.jpg",
      "name": "Produto 12",
      "price": 100,
      "discount": 50,
      "priceMember": 30,
      "priceNonMember": 50,
      "type": "Tinto",
      "classification": "Seco",
      "volume": "750 ml",
      "Rating": 4,
      "rating": 4,
      "country": "Chile",
      "region": "Valle Central",
      "flag": "/images/flag-test.svg",
      "sommelierComment": "Jovem e com um estilo que agrada com facilidade, esse versátil rótulo pode ser degustado sozinho ou harmonizado com receitas do dia a dia. A Viña Canepa, fundada no Chile por imigrantes italianos, iniciou a produção da linha Novísimo nos anos 80."
    }
  ]
}